<svg width="1721px" height="1721px" viewBox="0 0 1721 1721" version="1.1" xmlns="http://www.w3.org/2000/svg">
    <g id="Page-1" stroke="none" stroke-width="1" fill="none" fill-rule="evenodd">
        <g id="SLIDE-1" transform="translate(-492.000000, -183.000000)">
            <g id="Group" transform="translate(497.000000, 188.000000)">
                <g id="Group-2">
                    <circle id="Oval" fill="#A8A7FA" cx="855.5" cy="855.5" r="768.5"></circle>
                    <path d="M855.5,1711 C1327.9796,1711 1711,1327.9796 1711,855.5 C1711,383.020397 1327.9796,0 855.5,0 C383.020397,0 0,383.020397 0,855.5 C0,1327.9796 383.020397,1711 855.5,1711 Z" id="Oval" stroke="#E0E0E0" stroke-width="10" stroke-linecap="round" stroke-dasharray="14,40"></path>
                </g>
            </g>
        </g>
    </g>
</svg>