<?xml version="1.0" encoding="UTF-8"?>
<svg width="205px" height="205px" viewBox="0 0 205 205" version="1.1" xmlns="http://www.w3.org/2000/svg" xmlns:xlink="http://www.w3.org/1999/xlink">
    <title>Icon-</title>
    <defs>
        <linearGradient x1="0%" y1="0%" x2="99.3322424%" y2="99.3322424%" id="linearGradient-1">
            <stop stop-color="#EB7000" offset="0%"></stop>
            <stop stop-color="#FFA452" offset="100%"></stop>
        </linearGradient>
    </defs>
    <g id="Icon-" stroke="none" stroke-width="1" fill="none" fill-rule="evenodd">
        <path d="M165,0 C187.09139,-4.05812251e-15 205,17.90861 205,40 L205,165 C205,187.09139 187.09139,205 165,205 L40,205 C17.90861,205 2.705415e-15,187.09139 0,165 L0,40 C-2.705415e-15,17.90861 17.90861,4.05812251e-15 40,0 L165,0 Z M166.162109,84.4824219 C161.836871,88.9906369 156.880868,92.7775376 151.294101,95.8431238 C145.707334,98.90871 140.300785,100.441503 135.074455,100.441503 C131.289871,100.441503 127.280014,99.9455995 123.044885,98.9537922 C118.809755,97.9619849 113.448261,96.0234524 106.960403,93.1381948 C98.6703614,89.5316227 91.9572303,87.1873509 86.8210092,86.1053793 C81.684788,85.0234077 76.5035123,84.4824219 71.277182,84.4824219 C58.5074292,84.4824219 47.8321861,89.1106288 39.2514528,98.3670427 L38.8378906,98.8185457 L38.8378906,119.916992 C43.1631295,115.408777 48.1191323,111.621876 53.7058992,108.55629 C59.292666,105.490704 64.6091055,103.957911 69.6552175,103.957911 C73.6200197,103.957911 77.7199857,104.453815 81.9551154,105.445622 C86.1902452,106.437429 91.5517392,108.375962 98.0395974,111.261219 C106.14942,114.687463 112.862551,116.986652 118.178991,118.158788 C123.49543,119.330924 128.676706,119.916992 133.722818,119.916992 C146.315213,119.916992 156.987641,115.201461 165.740102,105.770397 L166.162109,105.310375 L166.162109,84.4824219 Z" id="Combined-Shape" fill="url(#linearGradient-1)"></path>
    </g>
</svg>