<?xml version="1.0" encoding="UTF-8"?>
<svg width="205px" height="205px" viewBox="0 0 205 205" version="1.1" xmlns="http://www.w3.org/2000/svg" xmlns:xlink="http://www.w3.org/1999/xlink">
    <title>Icon-</title>
    <defs>
        <filter id="filter-1">
            <feColorMatrix in="SourceGraphic" type="matrix" values="0 0 0 0 0.285490 0 0 0 0 0.912845 0 0 0 0 0.356369 0 0 0 1.000000 0"></feColorMatrix>
        </filter>
    </defs>
    <g id="Icon-" stroke="none" stroke-width="1" fill="none" fill-rule="evenodd">
        <rect id="Rectangle" fill="#FFFFFF" x="0" y="0" width="205" height="205"></rect>
        <g filter="url(#filter-1)" fill="#49E95B" id="icon">
            <g transform="translate(39.000000, 84.000000)">
                <path d="M94.8849273,35.4345703 C107.680426,35.4345703 118.493523,30.5656981 127.324219,20.8279535 L127.324219,20.8279535 L127.324219,0 C122.99898,4.50821505 118.042977,8.2951157 112.45621,11.3607019 C106.869443,14.4262882 101.462895,15.9590813 96.2365645,15.9590813 C92.4519805,15.9590813 88.4421236,15.4631776 84.2069939,14.4713703 C79.9718642,13.479563 74.6103702,11.5410305 68.1225119,8.6557729 C59.8324708,5.04920086 53.1193397,2.70492903 47.9831185,1.62295742 C42.8468974,0.540985806 37.6656217,0 32.4392914,0 C19.4635748,0 8.65047771,4.77870796 0,14.3361239 L0,14.3361239 L0,35.4345703 C4.32523885,30.9263553 9.28124171,27.1394546 14.8680086,24.0738684 C20.4547754,21.0082821 25.7712148,19.475489 30.8173268,19.475489 C34.7821291,19.475489 38.8820951,19.9713927 43.1172248,20.9632 C47.3523545,21.9550073 52.7138485,23.8935398 59.2017068,26.7787974 C67.3115297,30.2050409 74.0246608,32.5042305 79.3411002,33.6763664 C84.6575396,34.8485024 89.8388154,35.4345703 94.8849273,35.4345703 Z" id="~" fill="#FFFFFF" fill-rule="nonzero"></path>
            </g>
        </g>
    </g>
</svg>