<?xml version="1.0" encoding="UTF-8"?>
<svg width="100px" height="100px" viewBox="0 0 100 100" version="1.1" xmlns="http://www.w3.org/2000/svg" xmlns:xlink="http://www.w3.org/1999/xlink">
    <g id="instagram" stroke="none" stroke-width="1" fill="none" fill-rule="evenodd">
        <path d="M50.0111545,24.361263 C35.8226436,24.361263 24.3781372,35.8083231 24.3781372,50 C24.3781372,64.1916769 35.8226436,75.638737 50.0111545,75.638737 C64.1996654,75.638737 75.6441718,64.1916769 75.6441718,50 C75.6441718,35.8083231 64.1996654,24.361263 50.0111545,24.361263 Z M50.0111545,66.6685262 C40.842164,66.6685262 33.3463469,59.1933504 33.3463469,50 C33.3463469,40.8066496 40.819855,33.3314738 50.0111545,33.3314738 C59.202454,33.3314738 66.6759621,40.8066496 66.6759621,50 C66.6759621,59.1933504 59.180145,66.6685262 50.0111545,66.6685262 L50.0111545,66.6685262 Z M82.6715003,23.312507 C82.6715003,26.6372866 79.9944228,29.2926476 76.6926938,29.2926476 C73.3686559,29.2926476 70.7138873,26.6149727 70.7138873,23.312507 C70.7138873,20.0100413 73.3909649,17.3323664 76.6926938,17.3323664 C79.9944228,17.3323664 82.6715003,20.0100413 82.6715003,23.312507 Z M99.6486336,29.3819034 C99.2693809,21.3711927 97.4400446,14.2753542 91.572783,8.4290974 C85.7278305,2.58284057 78.633575,0.753096062 70.6246514,0.351444829 C62.3703291,-0.117148276 37.6296709,-0.117148276 29.3753486,0.351444829 C21.388734,0.730782104 14.2944785,2.56052661 8.42721695,8.40678344 C2.55995538,14.2530403 0.752928054,21.3488787 0.351366425,29.3595894 C-0.117122142,37.6157537 -0.117122142,62.3619324 0.351366425,70.6180966 C0.730619074,78.6288073 2.55995538,85.7246458 8.42721695,91.5709026 C14.2944785,97.4171594 21.366425,99.2469039 29.3753486,99.6485552 C37.6296709,100.117148 62.3703291,100.117148 70.6246514,99.6485552 C78.633575,99.2692179 85.7278305,97.4394734 91.572783,91.5709026 C97.4177356,85.7246458 99.2470719,78.6288073 99.6486336,70.6180966 C100.117122,62.3619324 100.117122,37.6380676 99.6486336,29.3819034 Z M88.9849414,79.4767377 C87.244841,83.8502733 83.8761852,87.2196809 79.4813162,88.9824835 C72.9001673,91.5932166 57.2838818,90.9907397 50.0111545,90.9907397 C42.7384272,90.9907397 27.0998327,91.5709026 20.5409927,88.9824835 C16.1684328,87.2419949 12.7997769,83.8725873 11.0373675,79.4767377 C8.42721695,72.8941203 9.0295594,57.2743501 9.0295594,50 C9.0295594,42.7256499 8.44952593,27.0835658 11.0373675,20.5232623 C12.7774679,16.1497267 16.1461238,12.7803191 20.5409927,11.0175165 C27.1221417,8.40678344 42.7384272,9.00926029 50.0111545,9.00926029 C57.2838818,9.00926029 72.9224763,8.4290974 79.4813162,11.0175165 C83.8538762,12.7580051 87.2225321,16.1274127 88.9849414,20.5232623 C91.595092,27.1058797 90.9927496,42.7256499 90.9927496,50 C90.9927496,57.2743501 91.595092,72.9164342 88.9849414,79.4767377 Z" id="Shape" fill="#000000" fill-rule="nonzero"></path>
    </g>
</svg>