<svg width="97px" height="81px" viewBox="0 0 97 81" version="1.1" xmlns="http://www.w3.org/2000/svg" >
    <g stroke="none" stroke-width="1" fill="none" fill-rule="evenodd">
        <g  transform="translate(-2.000000, -10.000000)" fill="#000000">
            <path d="M45.6987755,11.4697157 C47.6428509,13.4293367 47.6428509,16.6065101 45.6987755,18.5661311 L18.9952896,45.4817363 L94.0218835,45.4820766 C96.7712213,45.4820766 99,47.7286774 99,50.5 C99,53.2713226 96.7712213,55.5179234 94.0218835,55.5179234 L18.9952896,55.5175831 L45.6987755,82.4338689 C47.6428509,84.3934899 47.6428509,87.5706633 45.6987755,89.5302843 C43.7547001,91.4899052 40.602731,91.4899052 38.6586556,89.5302843 L3.45805655,54.0482077 C1.51398115,52.0885867 1.51398115,48.9114133 3.45805655,46.9517923 L38.6586556,11.4697157 C40.602731,9.51009475 43.7547001,9.51009475 45.6987755,11.4697157 Z" id="Path" transform="translate(50.500000, 50.500000) scale(-1, 1) translate(-50.500000, -50.500000) "></path>
        </g>
    </g>
</svg>