<svg width="860px" height="860px" viewBox="0 0 860 860" version="1.1" xmlns="http://www.w3.org/2000/svg" xmlns:xlink="http://www.w3.org/1999/xlink">
    <g stroke="none" stroke-width="1" fill="none" fill-rule="evenodd" stroke-dasharray="14,40" stroke-linecap="round">
        <g transform="translate(-492.000000, -183.000000)" stroke="#E0E0E0" stroke-width="10">
            <path d="M922,1038 C1156.72102,1038 1347,847.721019 1347,613 C1347,378.278981 1156.72102,188 922,188 C687.278981,188 497,378.278981 497,613 C497,847.721019 687.278981,1038 922,1038 Z" id="Oval"></path>
        </g>
    </g>
</svg>